[gd_scene load_steps=3 format=2]

[ext_resource path="res://Background_1.png" type="Texture" id=1]

[sub_resource type="GDScript" id=1]
script/source = "tool

extends Node2D


# Declare member variables here. Examples:
# var a = 2
# var b = \"text\"
var bgwidth
var movespeed = 10
var spr_array: Array = []
export var txtr_loader: Array = []
var txtr_name = [\"Background_1\"]
#var totalwidth = 0
var game_width = 160
var game_height = 144
var movement
var bg_transition = load(\"res://BgTransition.tscn\")

# Called when the node enters the scene tree for the first time.
func _ready():
#	var spr1 = Sprite.new()
#	spr1.centered = false
#	spr1.texture = load(\"res://Background_1.png\")
#	self.add_child(spr1)
#	bgwidth = texture.get_width()
	
	#for t in txtr_name:
	#	txtr_loader.append(load(\"res://\"+t+\".png\"))
	
	if not Engine.editor_hint:
		#clear_background()
		set_background()
		movement = 0
	else:
		#clear_background()
		#var newspr = Sprite.new()
		#newspr.centered = false
		#newspr.texture = txtr_loader[0]
		#newspr.position.x = 0
		#self.add_child(newspr)
		set_background()

# Called every frame. 'delta' is the elapsed time since the previous frame.
func _process(delta):
#	if position.x < bgwidth - 160:
#		position.x -= movespeed * delta

	if not Engine.editor_hint:
		#var movement = movespeed * delta
		movement += movespeed * delta
		if movement > 1:
			movement = floor(movement)
			#print(movement)
			for ch in get_children():
				if ch.is_class(\"Sprite\") or ch.is_class(\"AnimatedSprite\"):
					if ch.position.x < (-get_background_element_texture(ch).get_width()): #if sprite is too far left, that it's not on the screen anymore
						delete_background_element(ch)
					#ch.position.x -= movement
					
				ch.position.x -= movement
			if spr_array.size() == 1: # < 2 ?
				append_background(get_background_element_texture(spr_array[0]))
			movement = 0


func clear_background():
	for child in self.get_element_children():
		child.queue_free()
	spr_array.clear()
		
func clear_incoming_background():
	for c in get_element_children():
		if c.position.x > game_width:
			delete_background_element(c)
		
func set_background():
	clear_background()
	for t in txtr_loader:
		append_background(t)
		
#add another background next to the last background
#if auto_transition is true, add a transition between the bg if they have different textures
func append_background(txtr, auto_transition = true):
	var newspr = auto_create_background_element_node(txtr)
	var xpos = 0
	for c in get_element_children():
		xpos = max(xpos, c.position.x + get_background_element_texture(c).get_width())
	newspr.position.x = xpos
	self.add_child(newspr)
	spr_array.append(newspr)
	if auto_transition and spr_array.size() > 1 and txtr.resource_path != get_background_element_texture(spr_array[-2]).resource_path: #-2 because -1 is the one we just added
		newspr.add_child(bg_transition.instance())

func load_as_immediate_next_background(txtr):
	clear_incoming_background()
	var newspr = auto_create_background_element_node(txtr)
	newspr.position.x = game_width
	self.add_child(newspr)
	self.move_child(newspr, 0)
	#totalwidth += newspr.texture.get_width()
	spr_array.append(newspr)
	
func load_as_next_background(txtr):
	clear_incoming_background()
	var newspr = auto_create_background_element_node(txtr)
	var xpos = 0
	for c in get_element_children():
		xpos = max(xpos, c.position.x + get_background_element_texture(c).get_width())
	newspr.position.x = xpos
	self.add_child(newspr)
	self.move_child(newspr, 0)
	#totalwidth += newspr.texture.get_width()
	spr_array.append(newspr)

func delete_background_first_element():
	spr_array[0].queue_free()
	spr_array.pop_front()
	
func delete_background_element(elem):
	spr_array.remove(spr_array.find(elem)) #spr_array.erase(elem)
	elem.queue_free()

func get_element_children():
	var children = self.get_children()
	#var count = 0
	for c in children:
		if !c.is_class(\"Sprite\") and !c.is_class(\"AnimatedSprite\"):
			children.remove(children.find(c))
		#count += 1
	return children
	
func get_background_element_texture(elem):
	var txtr = null
	if elem.is_class(\"Sprite\"):
		txtr = elem.texture 
	elif elem.is_class(\"AnimatedSprite\"):
		txtr = elem.frames.get_frame(\"full_txtr\", 0)
	return txtr

func auto_create_background_element_node(txtr):
	if txtr.get_height() > game_height + game_height/2: # 1.5 screen height
		return create_background_element_animatedsprite(txtr)
	else:
		return create_background_element_sprite(txtr)

func create_background_element_sprite(txtr):
	var spr = Sprite.new()
	spr.centered = false
	spr.texture = txtr
	return spr
	
func create_background_element_animatedsprite(txtr):
	var image = txtr.get_data()
	#image.get_rect()
	var sprfm = SpriteFrames.new()
	sprfm.add_animation(\"default\")
	for i in range(0, txtr.get_height() / game_height):
		var lol = image.get_rect(Rect2(0,(i-1)*game_height,game_width,game_height)).is_empty()
		print(image.get_rect(Rect2(0,(i-1)*game_height,game_width,game_height)).is_empty())
		#print((ImageTexture.new()).create_from_image(image.get_rect(Rect2(0,(i-1)*game_height,game_width,game_height))).get_size())
		var it = ImageTexture.new()
		it.create_from_image(image.get_rect(Rect2(0,i*game_height,txtr.get_width(),game_height)))
		sprfm.add_frame(\"default\", it)
	sprfm.set_animation_speed(\"default\", 8)
	sprfm.add_animation(\"full_txtr\")
	sprfm.add_frame(\"full_txtr\", txtr)
	var animspr = AnimatedSprite.new()
	animspr.frames = sprfm
	animspr.centered = false
	animspr.playing = true
	if spr_array.size() > 0 and spr_array[-1].is_class(\"AnimatedSprite\") and txtr.resource_path == get_background_element_texture(spr_array[-1]).resource_path:
		animspr.frame = spr_array[-1].frame
	return animspr
"

[node name="Background" type="Node2D"]
script = SubResource( 1 )
txtr_loader = [ ExtResource( 1 ) ]
