[gd_scene load_steps=8 format=2]

[sub_resource type="GDScript" id=6]
script/source = "extends Control


# Declare member variables here. Examples:
# var a = 2
# var b = \"text\"
var deltasum = 0
var deltasum_lap = 1.5#5.0
var testing : Node2D = null

# Called when the node enters the scene tree for the first time.
func _ready():
	$Line2DLR.visible = false
	$Line2DRL.visible = false
	$Line2DM1.visible = false
	#$Line2DM2.visible = false
	
	testing = $Line2DM1
	
	testing.visible = true
	testing.length = 0


# Called every frame. 'delta' is the elapsed time since the previous frame.
func _process(delta):
	deltasum += delta
	if deltasum >= deltasum_lap:
		testing.length += 1
	deltasum = fmod(deltasum, deltasum_lap)
	$Line2DM2.length = $Line2DM1.length
"

[sub_resource type="GDScript" id=2]
script/source = "extends Line2D


# Declare member variables here. Examples:
# var a = 2
# var b = \"text\"
export var height : float
export var width_ : float

# Called when the node enters the scene tree for the first time.
func _ready():
	var plg2d = get_node(\"../Polygon2D\")
	if width_ == 0:
		width_ = plg2d.width - plg2d.left_border_width - plg2d.right_border_width
	if height == 0:
		height = plg2d.height - plg2d.top_border_height - plg2d.bottom_border_height


# Called every frame. 'delta' is the elapsed time since the previous frame.
func _process(delta):
	points[0].y = height / 2.0
	points[1].y = height / 2.0
	width = height
	points[1].x = width_
"

[sub_resource type="GDScript" id=3]
script/source = "extends Line2D


# Declare member variables here. Examples:
# var a = 2
# var b = \"text\"
export var height : float
export var width_ : float
export var length : float

# Called when the node enters the scene tree for the first time.
func _ready():
	var plg2d = get_node(\"../Polygon2D\")
	if width_ == 0:
		width_ = plg2d.width - plg2d.left_border_width - plg2d.right_border_width
	if height == 0:
		height = plg2d.height - plg2d.top_border_height - plg2d.bottom_border_height

# Called every frame. 'delta' is the elapsed time since the previous frame.
func _process(delta):
	var max_length = width_
	position.x = get_node(\"../Polygon2D\").left_border_width
	position.y = get_node(\"../Polygon2D\").top_border_height
	points[0].y = height / 2.0
	points[1].y = height / 2.0
	width = height
	if length < max_length:
		points[1].x = length
	else:
		points[1].x = max_length 
"

[sub_resource type="GDScript" id=4]
script/source = "extends Line2D


# Declare member variables here. Examples:
# var a = 2
# var b = \"text\"
export var height : float
export var width_ : float
export var length : float

# Called when the node enters the scene tree for the first time.
func _ready():
	points.resize(0)
	points.append_array(PoolVector2Array([Vector2.ZERO, Vector2.ZERO]))
	var plg2d = get_node(\"../Polygon2D\")
	if width_ == 0:
		width_ = plg2d.width - plg2d.left_border_width - plg2d.right_border_width
	if height == 0:
		height = plg2d.height - plg2d.top_border_height - plg2d.bottom_border_height

# Called every frame. 'delta' is the elapsed time since the previous frame.
func _process(delta):
	position.x = get_node(\"../Polygon2D\").left_border_width
	position.y = get_node(\"../Polygon2D\").top_border_height
	points = PoolVector2Array([Vector2.ZERO, Vector2.ZERO])
	points[0].y = height / 2.0
	points[1].y = height / 2.0
	width = height
	points[1].x = width_
	if length < width_:
		points[0].x = width_ - length
	else:
		points[0].x = 0
"

[sub_resource type="GDScript" id=5]
script/source = "extends Line2D


# Declare member variables here. Examples:
# var a = 2
# var b = \"text\"
export var height : float
export var width_ : float
export var length : float

# Called when the node enters the scene tree for the first time.
func _ready():
	points.resize(0)
	points.append_array(PoolVector2Array([Vector2.ZERO, Vector2.ZERO]))
	var plg2d = get_node(\"../Polygon2D\")
	if width_ == 0:
		width_ = plg2d.width - plg2d.left_border_width - plg2d.right_border_width
	if height == 0:
		height = plg2d.height - plg2d.top_border_height - plg2d.bottom_border_height

# Called every frame. 'delta' is the elapsed time since the previous frame.
func _process(delta):
	var max_length = width_
	position.x = get_node(\"../Polygon2D\").left_border_width + width_ / 2.0
	position.y = get_node(\"../Polygon2D\").top_border_height
	points = PoolVector2Array([Vector2.ZERO, Vector2.ZERO])
	points[0].y = height / 2.0
	points[1].y = height / 2.0
	width = height
	if length / 2.0 < max_length / 2.0:
		points[1].x = length / 2.0
	else:
		points[1].x = max_length / 2.0 
"

[sub_resource type="GDScript" id=7]
script/source = "extends Line2D


# Declare member variables here. Examples:
# var a = 2
# var b = \"text\"
export var height : float
export var width_ : float
export var length : float

# Called when the node enters the scene tree for the first time.
func _ready():
	points.resize(0)
	points.append_array(PoolVector2Array([Vector2.ZERO, Vector2.ZERO]))
	var plg2d = get_node(\"../Polygon2D\")
	if width_ == 0:
		width_ = plg2d.width - plg2d.left_border_width - plg2d.right_border_width
	if height == 0:
		height = plg2d.height - plg2d.top_border_height - plg2d.bottom_border_height

# Called every frame. 'delta' is the elapsed time since the previous frame.
func _process(delta):
	var max_length = width_
	position.x = get_node(\"../Polygon2D\").left_border_width
	position.y = get_node(\"../Polygon2D\").top_border_height
	points = PoolVector2Array([Vector2.ZERO, Vector2.ZERO])
	points[0].y = height / 2.0
	points[1].y = height / 2.0
	width = height
	points[1].x = width_ / 2.0
	if length / 2.0 < width_ / 2.0:
		points[0].x = width_ / 2.0 - length / 2.0
	else:
		points[0].x = 0
"

[sub_resource type="GDScript" id=1]
script/source = "#tools
extends Polygon2D


# Declare member variables here. Examples:
# var a = 2
# var b = \"text\"
export var left_border_width = 1
export var right_border_width = 1
export var top_border_height = 1
export var bottom_border_height = 1

export var height = 3
export var width = 20

const POINT4LINE : PoolIntArray = PoolIntArray([11, 0, 3, 4])
const NBPOINTS = 12
const POINTDIFFLINE = 3

# Called when the node enters the scene tree for the first time.
func _ready():
	pass # Replace with function body.


# Called every frame. 'delta' is the elapsed time since the previous frame.
func _process(delta):
	if top_border_height + bottom_border_height > height:
		top_border_height = height/2
		bottom_border_height = height/2
	if left_border_width + right_border_width > width:
		top_border_height = height/2
		bottom_border_height = height/2
	
	polygon.resize(0)
	polygon.append(Vector2(0,0))
	polygon.append(Vector2(left_border_width,0))
	polygon.append(Vector2(width-right_border_width,0))
	polygon.append(Vector2(width,0))
	polygon.append(Vector2(width,top_border_height))
	polygon.append(Vector2(width,height-bottom_border_height))
	polygon.append(Vector2(width,height))
	polygon.append(Vector2(width-right_border_width,height))
	polygon.append(Vector2(left_border_width,height))
	polygon.append(Vector2(0,height))
	polygon.append(Vector2(0,height-bottom_border_height))
	polygon.append(Vector2(0,top_border_height))
	
	polygons.resize(0)
	polygons.append(POINT4LINE)
	#polygons.append((POINT4LINE+3)%NBPOINTS)
	polygons.append(add_int_to_point4line_values(3))
	polygons.append(add_int_to_point4line_values(6))
	polygons.append(add_int_to_point4line_values(9))
	
func add_int_to_point4line_values(i):
	var p4l = PoolIntArray([])
	for v in POINT4LINE:
		p4l.append((v+i)%NBPOINTS)
	return p4l
"

[node name="HealthBarResizable" type="Control"]
script = SubResource( 6 )
__meta__ = {
"_edit_use_anchors_": false
}

[node name="Line2DBG" type="Line2D" parent="."]
position = Vector2( 1, 1 )
points = PoolVector2Array( 0, 0.5, 10, 0.5 )
width = 1.0
default_color = Color( 0.627451, 0.627451, 0.627451, 1 )
script = SubResource( 2 )

[node name="Line2DLR" type="Line2D" parent="."]
position = Vector2( 1, 1 )
points = PoolVector2Array( 0, 0.5, 10, 0.5 )
width = 1.0
default_color = Color( 1, 1, 1, 1 )
script = SubResource( 3 )

[node name="Line2DRL" type="Line2D" parent="."]
script = SubResource( 4 )

[node name="Line2DM1" type="Line2D" parent="."]
script = SubResource( 5 )

[node name="Line2DM2" type="Line2D" parent="."]
script = SubResource( 7 )

[node name="Polygon2D" type="Polygon2D" parent="."]
color = Color( 0, 0, 0, 1 )
polygon = PoolVector2Array( 0, 0, 1, 0, 19, 0, 20, 0, 20, 1, 20, 2, 20, 3, 19, 3, 1, 3, 0, 3, 0, 2, 0, 1 )
polygons = [ PoolIntArray( 0, 3, 4, 11 ), PoolIntArray( 3, 6, 7, 2 ), PoolIntArray( 6, 9, 10, 5 ), PoolIntArray( 9, 0, 1, 8 ) ]
script = SubResource( 1 )

[node name="Polygon2D_orig" type="Polygon2D" parent="."]
visible = false
color = Color( 0, 0, 0, 1 )
polygon = PoolVector2Array( 0, 0, 1, 0, 19, 0, 20, 0, 20, 1, 20, 2, 20, 3, 19, 3, 1, 3, 0, 3, 0, 2, 0, 1 )
polygons = [ PoolIntArray( 0, 3, 4, 11 ), PoolIntArray( 3, 6, 7, 2 ), PoolIntArray( 6, 9, 10, 5 ), PoolIntArray( 9, 0, 1, 8 ) ]
