[gd_scene load_steps=3 format=2]

[sub_resource type="GDScript" id=1]
script/source = "extends Area2D


# Declare member variables here. Examples:
# var a = 2
# var b = \"text\"


# Called when the node enters the scene tree for the first time.
func _ready():
	pass # Replace with function body.


# Called every frame. 'delta' is the elapsed time since the previous frame.
#func _process(delta):
#	pass


func _on_LoadTrigger_body_entered(body):
	if body.get_parent().name == \"Spaceship\":
		get_tree().get_root().find_node(\"LoadTransition\", true, false).trigger_loading_animation(\"end\")
"

[sub_resource type="RectangleShape2D" id=2]
extents = Vector2( 8, 72 )

[node name="LoadTrigger" type="Area2D"]
script = SubResource( 1 )

[node name="CollisionShape2D" type="CollisionShape2D" parent="."]
position = Vector2( 0, 72 )
shape = SubResource( 2 )

[connection signal="body_entered" from="." to="." method="_on_LoadTrigger_body_entered"]
