[gd_scene load_steps=5 format=2]

[ext_resource path="res://Bullet.png" type="Texture" id=1]

[sub_resource type="PhysicsMaterial" id=1]

[sub_resource type="GDScript" id=2]
script/source = "extends RigidBody2D


# Declare member variables here. Examples:
# var a = 2
# var b = \"text\"
var deltasum = 0
onready var spacebullet_realpos = self.position
var damage = 20

# Called when the node enters the scene tree for the first time.
func _ready():
	spacebullet_realpos = self.position
	apply_central_impulse(Vector2(1,0))


# Called every frame. 'delta' is the elapsed time since the previous frame.
func _process(delta):
	if position.x > 160 + 20 or deltasum > 5:#20:
		get_parent().queue_free()
	deltasum += delta
	
func _integrate_forces(state):
	spacebullet_realpos = self.position #proly useless
#	self.position.x = round(self.position.x)
#	self.position.y = round(self.position.y)
	self.global_position.x = round(self.global_position.x)
	self.global_position.y = round(self.global_position.y)


func _on_RigidBody2D_body_entered(body):
	if body.get_parent().name != \"Spaceship\":
		get_parent().queue_free()
"

[sub_resource type="RectangleShape2D" id=3]
extents = Vector2( 3, 3 )

[node name="Spacebullet" type="Node2D"]

[node name="RigidBody2D" type="RigidBody2D" parent="."]
collision_mask = 6
mode = 2
physics_material_override = SubResource( 1 )
gravity_scale = 0.0
contacts_reported = 3
contact_monitor = true
linear_velocity = Vector2( 50, 0 )
applied_force = Vector2( 50, 0 )
script = SubResource( 2 )

[node name="CollisionShape2D" type="CollisionShape2D" parent="RigidBody2D"]
shape = SubResource( 3 )

[node name="Sprite" type="Sprite" parent="RigidBody2D"]
texture = ExtResource( 1 )

[connection signal="body_entered" from="RigidBody2D" to="RigidBody2D" method="_on_RigidBody2D_body_entered"]
